…
### Problem 1

``` r
library(p8105.datasets)
data("instacart")

instacart = instacart %>% as_tibble(instacart)

instacart %>% count(aisle) %>% arrange(desc(n))
```

    ## # A tibble: 134 × 2
    ##    aisle                              n
    ##    <chr>                          <int>
    ##  1 fresh vegetables              150609
    ##  2 fresh fruits                  150473
    ##  3 packaged vegetables fruits     78493
    ##  4 yogurt                         55240
    ##  5 packaged cheese                41699
    ##  6 water seltzer sparkling water  36617
    ##  7 milk                           32644
    ##  8 chips pretzels                 31269
    ##  9 soy lactosefree                26240
    ## 10 bread                          23635
    ## # … with 124 more rows
…
``` r
noaa <- noaa %>% 
separate(col = date, into = c('Year','Month','Day'), sep = '-') 

noaa <- noaa %>% mutate(tmax = as.numeric(tmax), tmin = as.numeric(tmin),
tmin = tmin / 10, tmax = tmax / 10) %>% 
filter(prcp >= "0", snow >= "0", snwd >= "0")

countsnowfall <- noaa %>% count(snow)

countsnowfall
```

    ## # A tibble: 271 × 2
    ##     snow       n
    ##    <int>   <int>
    ##  1     0 1782135
    ##  2     3    7502
    ##  3     5    8254
    ##  4     8    8317
    ##  5    10    4411
    ##  6    13   19281
    ##  7    15    3189
    ##  8    18    2723
    ##  9    20    3934
    ## 10    23    1737
    ## # … with 261 more rows
…
